<?xml version="1.0" encoding="UTF-8"?>
<!DOCTYPE svg PUBLIC "-//W3C//DTD SVG 1.1//EN" "http://www.w3.org/Graphics/SVG/1.1/DTD/svg11.dtd">
<svg version="1.2" width="10.02mm" height="10.02mm" viewBox="15001 9001 1002 1002" preserveAspectRatio="xMidYMid" fill-rule="evenodd" stroke-width="28.222" stroke-linejoin="round" xmlns="http://www.w3.org/2000/svg" xmlns:ooo="http://xml.openoffice.org/svg/export" xmlns:xlink="http://www.w3.org/1999/xlink" xmlns:presentation="http://sun.com/xmlns/staroffice/presentation" xmlns:smil="http://www.w3.org/2001/SMIL20/" xmlns:anim="urn:oasis:names:tc:opendocument:xmlns:animation:1.0" xml:space="preserve">
 <defs class="EmbeddedBulletChars">
  <g id="bullet-char-template-57356" transform="scale(0.00048828125,-0.00048828125)">
   <path d="M 580,1141 L 1163,571 580,0 -4,571 580,1141 Z"/>
  </g>
  <g id="bullet-char-template-57354" transform="scale(0.00048828125,-0.00048828125)">
   <path d="M 8,1128 L 1137,1128 1137,0 8,0 8,1128 Z"/>
  </g>
  <g id="bullet-char-template-10146" transform="scale(0.00048828125,-0.00048828125)">
   <path d="M 174,0 L 602,739 174,1481 1456,739 174,0 Z M 1358,739 L 309,1346 659,739 1358,739 Z"/>
  </g>
  <g id="bullet-char-template-10132" transform="scale(0.00048828125,-0.00048828125)">
   <path d="M 2015,739 L 1276,0 717,0 1260,543 174,543 174,936 1260,936 717,1481 1274,1481 2015,739 Z"/>
  </g>
  <g id="bullet-char-template-10007" transform="scale(0.00048828125,-0.00048828125)">
   <path d="M 0,-2 C -7,14 -16,27 -25,37 L 356,567 C 262,823 215,952 215,954 215,979 228,992 255,992 264,992 276,990 289,987 310,991 331,999 354,1012 L 381,999 492,748 772,1049 836,1024 860,1049 C 881,1039 901,1025 922,1006 886,937 835,863 770,784 769,783 710,716 594,584 L 774,223 C 774,196 753,168 711,139 L 727,119 C 717,90 699,76 672,76 641,76 570,178 457,381 L 164,-76 C 142,-110 111,-127 72,-127 30,-127 9,-110 8,-76 1,-67 -2,-52 -2,-32 -2,-23 -1,-13 0,-2 Z"/>
  </g>
  <g id="bullet-char-template-10004" transform="scale(0.00048828125,-0.00048828125)">
   <path d="M 285,-33 C 182,-33 111,30 74,156 52,228 41,333 41,471 41,549 55,616 82,672 116,743 169,778 240,778 293,778 328,747 346,684 L 369,508 C 377,444 397,411 428,410 L 1163,1116 C 1174,1127 1196,1133 1229,1133 1271,1133 1292,1118 1292,1087 L 1292,965 C 1292,929 1282,901 1262,881 L 442,47 C 390,-6 338,-33 285,-33 Z"/>
  </g>
  <g id="bullet-char-template-9679" transform="scale(0.00048828125,-0.00048828125)">
   <path d="M 813,0 C 632,0 489,54 383,161 276,268 223,411 223,592 223,773 276,916 383,1023 489,1130 632,1184 813,1184 992,1184 1136,1130 1245,1023 1353,916 1407,772 1407,592 1407,412 1353,268 1245,161 1136,54 992,0 813,0 Z"/>
  </g>
  <g id="bullet-char-template-8226" transform="scale(0.00048828125,-0.00048828125)">
   <path d="M 346,457 C 273,457 209,483 155,535 101,586 74,649 74,723 74,796 101,859 155,911 209,963 273,989 346,989 419,989 480,963 531,910 582,859 608,796 608,723 608,648 583,586 532,535 482,483 420,457 346,457 Z"/>
  </g>
  <g id="bullet-char-template-8211" transform="scale(0.00048828125,-0.00048828125)">
   <path d="M -4,459 L 1135,459 1135,606 -4,606 -4,459 Z"/>
  </g>
  <g id="bullet-char-template-61548" transform="scale(0.00048828125,-0.00048828125)">
   <path d="M 173,740 C 173,903 231,1043 346,1159 462,1274 601,1332 765,1332 928,1332 1067,1274 1183,1159 1299,1043 1357,903 1357,740 1357,577 1299,437 1183,322 1067,206 928,148 765,148 601,148 462,206 346,322 231,437 173,577 173,740 Z"/>
  </g>
 </defs>
 <g class="Page">
  <g class="com.sun.star.drawing.CustomShape">
   <g id="id3">
    <rect class="BoundingBox" stroke="none" fill="none" x="15001" y="9001" width="1002" height="1002"/>
    <path fill="rgb(28,28,28)" stroke="none" d="M 16002,9502 C 16002,9589 15979,9676 15935,9752 15891,9828 15828,9891 15752,9935 15676,9979 15589,10002 15502,10002 15414,10002 15327,9979 15251,9935 15175,9891 15112,9828 15068,9752 15024,9676 15001,9589 15001,9502 15001,9414 15024,9327 15068,9251 15112,9175 15175,9112 15251,9068 15327,9024 15414,9001 15502,9001 15589,9001 15676,9024 15752,9068 15828,9112 15891,9175 15935,9251 15979,9327 16002,9414 16002,9502 L 16002,9502 Z"/>
   </g>
  </g>
  <g class="com.sun.star.drawing.CustomShape">
   <g id="id4">
    <rect class="BoundingBox" stroke="none" fill="none" x="15150" y="9150" width="701" height="701"/>
   </g>
  </g>
  <g class="com.sun.star.drawing.CustomShape">
   <g id="id5">
    <rect class="BoundingBox" stroke="none" fill="none" x="15371" y="9259" width="371" height="373"/>
    <path fill="rgb(250,250,250)" stroke="none" d="M 15630,9270 L 15630,9270 C 15626,9266 15620,9263 15614,9261 15608,9259 15602,9260 15596,9261 15590,9263 15585,9266 15580,9270 L 15382,9469 15382,9470 C 15377,9474 15374,9480 15373,9486 15371,9492 15371,9498 15373,9504 15374,9510 15378,9515 15382,9520 L 15482,9619 15482,9620 C 15486,9624 15492,9627 15498,9629 15504,9631 15510,9630 15516,9629 15522,9627 15527,9624 15532,9620 L 15730,9420 15730,9420 15730,9420 C 15735,9416 15738,9410 15739,9404 15741,9398 15741,9392 15739,9386 15738,9380 15734,9375 15730,9370 L 15630,9270 Z"/>
   </g>
  </g>
  <g class="com.sun.star.drawing.CustomShape">
   <g id="id6">
    <rect class="BoundingBox" stroke="none" fill="none" x="15252" y="9507" width="242" height="242"/>
    <path fill="rgb(250,250,250)" stroke="none" d="M 15252,9548 L 15257,9543 15263,9539 15269,9535 15274,9531 15280,9526 15286,9523 15292,9521 15299,9517 15305,9515 15312,9513 15319,9511 15326,9510 15333,9508 15340,9507 15347,9507 15354,9507 15361,9507 15367,9508 15374,9509 15381,9511 15388,9512 15395,9514 15402,9515 15408,9518 15415,9521 15421,9525 15427,9529 15433,9532 15438,9536 15444,9540 15449,9545 15454,9551 15459,9556 15463,9561 15467,9566 15470,9573 15475,9578 15478,9585 15481,9592 15484,9597 15485,9605 15488,9612 15489,9618 15490,9625 15492,9632 15492,9639 15492,9646 15492,9653 15492,9660 15491,9667 15490,9674 15489,9680 15487,9688 15485,9695 15483,9701 15479,9707 15477,9714 15474,9720 15469,9726 15465,9731 15461,9737 15457,9743 15452,9748 15352,9648 15252,9548 Z"/>
   </g>
  </g>
  <g class="com.sun.star.drawing.CustomShape">
   <g id="id7">
    <rect class="BoundingBox" stroke="none" fill="none" x="15316" y="9612" width="73" height="74"/>
    <path fill="rgb(250,250,250)" stroke="none" d="M 15377,9674 C 15373,9678 15367,9681 15361,9683 15355,9685 15349,9685 15343,9683 15337,9682 15331,9678 15327,9674 15322,9669 15319,9664 15317,9658 15316,9652 15316,9645 15317,9639 15319,9633 15322,9627 15326,9623 15331,9618 15336,9615 15342,9614 15348,9612 15354,9612 15360,9614 15366,9615 15372,9618 15376,9623 15381,9627 15384,9633 15386,9639 15388,9645 15388,9652 15386,9658 15385,9664 15381,9669 15377,9674 L 15377,9674 Z"/>
   </g>
  </g>
  <g class="com.sun.star.drawing.CustomShape">
   <g id="id8">
    <rect class="BoundingBox" stroke="none" fill="none" x="15579" y="9468" width="265" height="264"/>
    <path fill="rgb(250,250,250)" stroke="none" d="M 15679,9469 L 15842,9632 15742,9730 15579,9567 15679,9469 Z M 15679,9500 L 15811,9632 15743,9699 15611,9567 15679,9500 Z"/>
   </g>
  </g>
  <g class="com.sun.star.drawing.CustomShape">
   <g id="id9">
    <rect class="BoundingBox" stroke="none" fill="none" x="15266" y="9155" width="267" height="267"/>
    <path fill="rgb(250,250,250)" stroke="none" d="M 15368,9156 L 15531,9320 15430,9420 15267,9256 15368,9156 Z M 15367,9188 L 15498,9319 15431,9386 15300,9255 15367,9188 Z"/>
   </g>
  </g>
  <g class="com.sun.star.drawing.EllipseShape">
   <g id="id10">
    <rect class="BoundingBox" stroke="none" fill="none" x="15245" y="9635" width="121" height="121"/>
    <path fill="none" stroke="rgb(250,250,250)" stroke-width="18" stroke-linejoin="round" stroke-linecap="round" d="M 15355,9739 C 15346,9743 15335,9746 15324,9746 15312,9746 15300,9743 15289,9737 15278,9730 15270,9722 15263,9711 15257,9700 15254,9688 15254,9676 15254,9665 15257,9654 15261,9645"/>
   </g>
  </g>
  <g class="com.sun.star.drawing.EllipseShape">
   <g id="id11">
    <rect class="BoundingBox" stroke="none" fill="none" x="15210" y="9620" width="171" height="172"/>
    <path fill="none" stroke="rgb(250,250,250)" stroke-width="18" stroke-linejoin="round" stroke-linecap="round" d="M 15371,9771 C 15356,9778 15340,9782 15324,9782 15306,9782 15287,9777 15272,9768 15256,9759 15242,9745 15233,9730 15224,9714 15219,9695 15219,9677 15219,9661 15223,9645 15230,9630"/>
   </g>
  </g>
  <g class="com.sun.star.drawing.EllipseShape">
   <g id="id12">
    <rect class="BoundingBox" stroke="none" fill="none" x="15175" y="9603" width="222" height="223"/>
    <path fill="none" stroke="rgb(250,250,250)" stroke-width="18" stroke-linejoin="round" stroke-linecap="round" d="M 15387,9801 C 15367,9811 15346,9816 15324,9816 15299,9816 15275,9810 15254,9797 15233,9785 15215,9767 15203,9746 15190,9725 15184,9701 15184,9676 15184,9654 15189,9632 15199,9613"/>
   </g>
  </g>
 </g>
</svg>